<?xml version="1.0" encoding="utf-8"?>
<!-- Generator: Adobe Illustrator 23.0.0, SVG Export Plug-In . SVG Version: 6.00 Build 0)  -->
<svg version="1.1" xmlns="http://www.w3.org/2000/svg" xmlns:xlink="http://www.w3.org/1999/xlink" x="0px" y="0px"
	 viewBox="0 0 570 1052" style="enable-background:new 0 0 570 1052;" xml:space="preserve">
<style type="text/css">
	.st0{fill-rule:evenodd;clip-rule:evenodd;fill:#AA5986;}
	.st1{display:none;}
	.st2{display:inline;}
	.st3{fill:#0C619D;}
	.st4{fill-rule:evenodd;clip-rule:evenodd;fill:#0C619D;}
</style>
<g id="Capa_1" xmlns:svg="http://www.w3.org/2000/svg">
	<g transform="matrix(2.08276,0,0,2.08276,-786.0753,-421.7896)">
		<path class="st0" d="M552.5,247.2c0,20.6-17.1,37.4-38.2,37.4c-21.1,0-38.2-16.7-38.2-37.4l0,0c0-20.6,17.1-37.4,38.2-37.4
			C535.4,209.9,552.5,226.6,552.5,247.2z"/>
		<path class="st0" d="M420.5,542.4h49.8l0.5,141c0,0,1.5,15.2,18.5,15.2c18.9,0.1,19.2-15.2,19.2-15.2l0-142l11.1,0v142
			c0,0,2,15.2,18.8,15.2c17.6,0,19.6-15.2,19.6-15.2l-0.2-140.7l49.9-0.4l-54.4-187.4l9.2-0.3l0,0l33,109.6c0,0,7.9,15.2,21.3,9.2
			c13.5-6,10-20.1,10-20.1l-37.2-123.7c0,0-7-13.8-16.7-20.8c-9.7-7-23.8-10.9-23.8-10.9l-68.9,0.3c0,0-14.2,2.7-23.9,9.7
			c-9.8,7-16.8,21.8-16.8,21.8l-37.8,121.9c0,0-2.7,16.3,12.1,21.3c15.8,5.4,20.7-11.5,20.7-11.5L465.8,355h7.8L420.5,542.4z"/>
	</g>
</g>
<g id="Capa_2" class="st1">
	<g id="layer1" class="st2">
		<path id="path2558" class="st3" d="M214.6,1032.1c-15.8-5.4-28.3-17.5-31.9-30.8c-1.4-5.3-2.1-114-2.1-338.1l0-330.3h-8h-8v124.7
			c0,122.2-0.1,124.8-4.1,132.2c-5.3,9.6-11.2,14.1-22.7,17.3c-17.1,4.7-35.8-4.3-42.5-20.5c-4.3-10.4-4-289.1,0.3-306.4
			c9.8-38.9,41.5-70.8,78.5-79c19.5-4.3,199.8-4.3,219.2-0.1c19.8,4.3,36.8,14.2,51.9,30c15.5,16.2,22.7,29.4,28.1,51.2
			c3.8,15.2,4,23.3,4,155.8c0,121.1-0.4,140.8-3.1,147.4c-4.2,10.3-8.4,14.9-18,19.4c-15.8,7.5-35.9,2.7-45.3-10.9l-4.8-7l-0.5-127
			l-0.5-127h-8h-8v331.9c0,363.8,0.8,339.7-11.6,353.2c-9.8,10.7-19.8,14.8-36.5,14.8c-16.6,0-26.6-4-36.5-14.8
			c-12.2-13.3-11.6-3-11.6-216.3v-195h-8h-8v195c0,158.9-0.5,196.3-2.7,201.7c-4,10-12.8,19.8-22,24.7
			C243.1,1032.8,222.9,1034.9,214.6,1032.1L214.6,1032.1z"/>
		<path id="path5075" class="st4" d="M364.6,92.4c0.4,43.6-36.9,78.5-79.5,78.5c-42.6,0-80.1-34.9-79.6-78.5
			c0.4-43.1,37.5-77,79.6-77C327.1,15.3,364.2,49.3,364.6,92.4z"/>
	</g>
</g>
</svg>
